{
  "type": "service_account",
  "project_id": "phkl-ocr",
  "private_key_id": "5e28d4bec131f78b4184adff2ade65a6da6e1034",
  "private_key": "-----BEGIN PRIVATE KEY-----\nMIIEvQIBADANBgkqhkiG9w0BAQEFAASCBKcwggSjAgEAAoIBAQCsOdPUeVA1n7Da\nseNOH/pdjpKMhq3F9QfoeoNM1QSvdohbJhDgBUI6RrnmgqOh8bOLE1+LE/XskF/a\nEO72YVtToLSrwQsXuxagc0mMZHcbVXApfvmRn4vnEtcAbdMWtKrl5hejv9Jm7GNH\nhFXT3VFPEK17cxLiam1PgCyclTiJLbOj/huqLNkJt6t2rrrmhJiiJZZdnG4V4o3r\nnVR6GZ2TeBfcdVjff4ceIKvUozeq85h/3fb+N4nsTbiGkOmSDkyDfnwfYIqnhhU+\nRB/lmCIuTsAEvhTaLlG4I18SU+hlvTFEirf00+Uz6LcNV4ZJh9++mJgizMFTb5vq\nrWd4ABbNAgMBAAECggEAU20HoYrKQc+DGczFsNhorN0dPBkZICUbmY+O/q7JQD2I\nu65qyjmB5TzRXEm3/gBY2mueAn6+x8L/y2AcgRiT5qSYIAK43tvvj/WIkQsxbvoq\nBM/PEK1aVaqYn0qT0BHgHtEgbl/DCbxEMyZ1dNVmR4hqoLwTT74CCVqrQYY/BqNi\nkbDJkPsQlFCtJ4xr1bo8dMtI7jxUAZTiEZqCoKTeBPlHe/C3ZO1JN86kkE47nj1t\n0dRw4VoU1oj3jCP2zkYKjA2WY32tUvwU/PlzLmTLA/nFTZ/TQgz8ZWGe1pHVLbnx\nHHT8Bkpg87XhZgGLY+0pwQGFAdymV+g+LdIZZuwfeQKBgQDknescF2PNRngL0VtE\n4KUza74Su9aZ2PiKTbOXrJFr+9scZ9xjTTt6z6BuMkdYpRpBpClaCwLWZ/eHYo5t\n7BfakZS8PEa5LjhDH8lsredbU5CRPeNXugYgfje2+kD7l/lv1amZcAf0cgU5nswk\nxIALskMPF69731xdvvYanAEMZwKBgQDA2sqz0mvgwRfnky934F/agNZU/lqC45Lo\n1yWN8RDr8+dDonbF8rz1aYQ4rN4vqLvGsiQ6t0hT1zAYz4j7p4lQ+oIbfEzjnM55\nY+xJ1p3AH3VB9TahDDiGwAp92m1fej6pE5wzSAXk/9RinKF3Dgia453isBtRcrtY\nL0tQNKwCqwKBgCMNEz77VxHh/AXT02p8BtgbbMjyg7SSz4hk4WQf0Sv9MVrpkaCn\n9radnrtGeindJmlqAe0MQyMcTZc0RSIVUJLyPxudIjrCG14vQXKoNxCJf2DFXFXW\n75mLwH8NX2kzo8rBt38O7ilMUgDDmAkLF5azfhSSTRVw6Xh2DsWFpaOBAoGAbCA/\nVeK8KR8Zz/RtwMBD/bYOdUjGZmxBidpWa+akniX5m6oS/ZjC6LVoNH53dDEeVqC6\nP1FTc+5KQR7apn2gN468M7zVPyhDezvS1vNFLtp0W66oGlNHvgUd3MICYG2hhBpC\nkV3oMCRfZ4p53M45dN35P4eNSXUSJLcferCNYFECgYEAwUbdSPBw/mu7HPYsvmPz\nXHW3juF0ttF9T+l7g7u64T2JcNsOlwzlwEZ72N+90tWnE9Uet/Wue7uk90iN3iZ4\nO6g5R++3NEi/m0gRQ3BBXJkj90v2Mw8pIXN9hwrFKXPkTisdR2RAj+dkVc5WJJZp\nqBTWqBRsA1O52y72SZgYmto=\n-----END PRIVATE KEY-----\n",
  "client_email": "phkl-ocr@appspot.gserviceaccount.com",
  "client_id": "109046014656258303070",
  "auth_uri": "https://accounts.google.com/o/oauth2/auth",
  "token_uri": "https://oauth2.googleapis.com/token",
  "auth_provider_x509_cert_url": "https://www.googleapis.com/oauth2/v1/certs",
  "client_x509_cert_url": "https://www.googleapis.com/robot/v1/metadata/x509/phkl-ocr%40appspot.gserviceaccount.com"
}
